{
   "name":"onap template with wrong version",
   "template":{
      "homing_template_version":"xxxx-yy-zz",
      "parameters":{
         "service_name":"Residential vCPE",
         "service_id":"vcpe_service_id",
         "customer_lat":45.395968,
         "customer_long":-71.135344,
         "physical_location":"DLLSTX233",
         "REQUIRED_MEM":4,
         "REQUIRED_DISK":100,
         "pnf_id":"some_pnf_id"
      },
      "locations":{
         "customer_loc":{
            "latitude":{
               "get_param":"customer_lat"
            },
            "longitude":{
               "get_param":"customer_long"
            }
         }
      },
      "demands":{
         "vG":[
            {
               "inventory_provider":"aai",
               "inventory_type":"cloud"
            }
         ]
      },
      "constraints":{

      },
      "optimization":{

      }
   }
}
